How to get started with R
…
  height_1 height_2   mass_1   mass_2
1 34.78546 177.1765 29.26981 77.00784

Group by

Function: group_by()

Action: Group by one or more variables

starwars |> 
  group_by(species) |> 
  summarise(n())

# A tibble: 29 × 2
   species   `n()`
   <chr>     <int>
 1 Aleena        1
 2 Besalisk      1
 3 Cerean        1
 4 Clawdite      1
 5 Droid         1
 6 Dug           1
 7 Ewok          1
 8 Geonosian     1
 9 Gungan        2
10 Human        20
# ℹ 19 more rows
…
